{
    "name": "spectre",
    "creatureType": "elemental",
    "groups": [
        "monster"
    ],
    "entityClass": "com.lycanitesmobs.core.entity.creature.EntitySpectre",
    "modelClass": "com.lycanitesmobs.client.model.creature.ModelSpectre",
    "loadDefault": true,
    "enabled": true,
    "spawning": {
        "enabled": true,
        "spawners": [
            "endsky"
        ],
        "disableSubspecies": false,
        "dimensionIds": [],
        "dimensionListType": "blacklist",
        "ignoreBiome": false,
        "biomeTags": [
            "end"
        ],
        "spawnWeight": 8,
        "dungeonWeight": 200,
        "spawnAreaLimit": 3,
        "spawnGroupMin": 1,
        "spawnGroupMax": 3,
        "spawnsInLight": false,
        "spawnsInDark": true,
        "worldDayMin": -1,
        "despawnNatural": true,
        "despawnForced": false
    },
    "width": 0.8,
    "height": 1.6,
    "experience": 15,
    "health": 30,
    "defense": 0,
    "armor": 0,
    "speed": 32,
    "damage": 3,
    "attackSpeed": 1,
    "rangedSpeed": 1,
    "effectDuration": 5,
    "effectAmplifier": 0,
    "pierce": 1,
    "sight": 24,
    "knockbackResistance": 1,
    "eggBackColor": "#4f0095",
    "eggForeColor": "#ff08d7",
    "subspecies": [
        {
            "index": 0,
            "variants": [
                {
                    "index": 1,
                    "name": "azure",
                    "type": "uncommon"
                },
                {
                    "index": 2,
                    "name": "lux",
                    "type": "uncommon"
                }
            ]
        }
    ],
    "element": "void",
    "peaceful": false,
    "summonable": false,
    "tameable": false,
    "mountable": false,
    "summonCost": 2,
    "dungeonLevel": 1,
    "drops": [
        {
            "item": "minecraft:ender_pearl",
            "minAmount": 1,
            "maxAmount": 3,
            "chance": 1
        },
        {
            "item": "minecraft:ender_eye",
            "minAmount": 1,
            "maxAmount": 1,
            "chance": 0.5
        },
        {
            "item": "minecraft:chorus_fruit",
            "minAmount": 1,
            "maxAmount": 10,
            "chance": 0.5
        },
        {
            "item": "minecraft:obsidian",
            "minAmount": 1,
            "maxAmount": 2,
            "chance": 0.5
        },
        {
            "item": "lycanitesmobs:spectralboltcharge",
            "minAmount": 1,
            "maxAmount": 1,
            "chance": 0.25
        }
    ],
    "sizeScale": 1,
    "hitboxScale": 1
}