{
  "result": {
    "item": "lycanitesmobs:chaosorbcharge",
    "count": 4
  },
  "ingredients": [
	{
      "item": "lycanitesmobs:equipmentpart_argustail"
    }
  ],
  "type": "minecraft:crafting_shapeless"
}