{
  "result": {
    "item": "lycanitesmobs:devil_lasagna"
  },
  "ingredients": [
    {
      "item": "minecraft:nether_wart"
    },
    {
      "item": "minecraft:wheat"
    },
    {
      "item": "lycanitesmobs:cooked_pinky_meat"
    }
  ],
  "type": "minecraft:crafting_shapeless"
}