{
  "result": {
    "item": "lycanitesmobs:equipmentpart_goldscepterhead"
  },
  "pattern": [
    " I ",
    "IHI",
    " I "
  ],
  "key": {
    "H": {
      "item": "lycanitesmobs:equipmentpart_woodenhilt"
    },
    "I": {
      "item": "minecraft:gold_ingot"
    }
  },
  "type": "minecraft:crafting_shaped"
}